,addres,type,group
0,Coldplay - Magic.wav,# alternative,Coldplay
1,Coldplay Feat. Rihanna - Princess Of China .wav,# alternative,Coldplay
2,Coldplay - Viva La Vida .wav,# alternative,Coldplay
3,Coldplay - Adventure Of A Lifetime.wav,# alternative,Coldplay
4,Coldplay - Hypnotised.wav,# alternative,Coldplay
5,Coldplay - Hymn For The Weekend.wav,# alternative,Coldplay
6,Coldplay - Charlie Brown.wav,# alternative,Coldplay
7,Coldplay - Paradise.wav,# alternative,Coldplay
8,Coldplay - Moving To Mars.wav,# alternative,Coldplay
9,Coldplay - The Hardest Part.wav,# alternative,Coldplay
10,Coldplay - Up & Up .wav,# alternative,Coldplay
11,Coldplay - Speed Of Sound.wav,# alternative,Coldplay
12,Coldplay feat. Noel Gallagher - Up&Up.wav,# alternative,Coldplay
13,Coldplay - Always In My Head.wav,# alternative,Coldplay
14,Coldplay Feat. Rihanna - Princess Of China.wav,# alternative,Coldplay
15,Coldplay - Miracles.wav,# alternative,Coldplay
16,Coldplay - Major Minus.wav,# alternative,Coldplay
17,Coldplay - Viva La Vida.wav,# alternative,Coldplay
18,Coldplay - Adventure Of A Lifetime .wav,# alternative,Coldplay
19,Coldplay - All I Can Think About Is You.wav,# alternative,Coldplay
20,Coldplay - Christmas Lights.wav,# alternative,Coldplay
21,Coldplay - A Sky Full Of Stars .wav,# alternative,Coldplay
22,Coldplay - Strawberry Swing.wav,# alternative,Coldplay
23,Coldplay - Cemeteries Of London.wav,# alternative,Coldplay
24,Coldplay - Everglow.wav,# alternative,Coldplay
25,Coldplay feat. Tove Lo - Fun.wav,# alternative,Coldplay
26,Coldplay - Miracles .wav,# alternative,Coldplay
27,Coldplay - X Marks The Spot.wav,# alternative,Coldplay
28,Coldplay feat. Beyonce - Hymn For The Weekend.wav,# alternative,Coldplay
29,Coldplay - Death And All His Friends.wav,# alternative,Coldplay
30,Coldplay - The Scientist.wav,# alternative,Coldplay
31,Coldplay - Clocks.wav,# alternative,Coldplay
32,Coldplay - Magic .wav,# alternative,Coldplay
33,Coldplay - Amazing Day.wav,# alternative,Coldplay
34,Coldplay ft. The Chainsmokers - Something Just Like This .wav,# alternative,Coldplay
35,Coldplay - Paradise .wav,# alternative,Coldplay
36,Coldplay - A L I E N S.wav,# alternative,Coldplay
37,Coldplay - Every Teardroр Is A Waterfall .wav,# alternative,Coldplay
38,Coldplay feat. Beyonce - Hymn For The Weekend .wav,# alternative,Coldplay
39,Coldplay - Every Teardrop Is A Waterfall.wav,# alternative,Coldplay
40,Coldplay - A Head Full Of Dreams.wav,# alternative,Coldplay
41,Coldplay & Big Sean - Miracles .wav,# alternative,Coldplay
42,Coldplay - A Sky Full Of Stars.wav,# alternative,Coldplay
43,The Chainsmokers & Coldplay - Something Just Like This .wav,# alternative,Coldplay
44,Coldplay - Hurts Like Heaven.wav,# alternative,Coldplay
45,Coldplay - Glass Of Water.wav,# alternative,Coldplay
46,Coldplay - Charlie Brown .wav,# alternative,Coldplay
47,Coldplay - Midnight .wav,# alternative,Coldplay
48,Coldplay - Up & Up.wav,# alternative,Coldplay
49,The Chainsmokers & Coldplay - Something Just Like This.wav,# alternative,Coldplay
50,Coldplay - All Your Friends.wav,# alternative,Coldplay
51,Coldplay - Ghost Story.wav,# alternative,Coldplay
52,Coldplay - Atlas.wav,# alternative,Coldplay
53,Coldplay - Fix You.wav,# alternative,Coldplay
54,Coldplay - We All Fall In Love Sometimes.wav,# alternative,Coldplay
55,Coldplay - Ink.wav,# alternative,Coldplay
56,Coldplay - Army Of One.wav,# alternative,Coldplay
57,Coldplay - 42.wav,# alternative,Coldplay
58,Coldplay - Bird.wav,# alternative,Coldplay
59,Led Zeppelin - How Many More Times.wav,# rock,Led Zeppelin
60,Led Zeppelin - Fool In The Rain.wav,# rock,Led Zeppelin
61,Led Zeppelin - Ten Years Gone.wav,# rock,Led Zeppelin
62,Led Zeppelin - Kashmir.wav,# rock,Led Zeppelin
63,Led Zeppelin - Carouselambra.wav,# rock,Led Zeppelin
64,Led Zeppelin - Going To California.wav,# rock,Led Zeppelin
65,Led Zeppelin - We're Gonna Groove.wav,# rock,Led Zeppelin
66,"Led Zeppelin - Hey, Hey, What Can I Do.wav",# rock,Led Zeppelin
67,Led Zeppelin - Rock And Roll.wav,# rock,Led Zeppelin
68,Led Zeppelin - Custard Pie.wav,# rock,Led Zeppelin
69,Led Zeppelin - Whole Lotta Love.wav,# rock,Led Zeppelin
70,Led Zeppelin - Communication Breakdown.wav,# rock,Led Zeppelin
71,Led Zeppelin - What Is And What Should Never Be.wav,# rock,Led Zeppelin
72,Led Zeppelin - Celebration Day.wav,# rock,Led Zeppelin
73,Led Zeppelin - All My Love.wav,# rock,Led Zeppelin
74,Led Zeppelin - Heartbreaker.wav,# rock,Led Zeppelin
75,Led Zeppelin - Moby Dick.wav,# rock,Led Zeppelin
76,Led Zeppelin - Rock And Roll .wav,# rock,Led Zeppelin
77,Led Zeppelin - Immigrant Song.wav,# rock,Led Zeppelin
78,Led Zeppelin - Thank You.wav,# rock,Led Zeppelin
79,Led Zeppelin - In The Evening.wav,# rock,Led Zeppelin
80,Led Zeppelin - When The Levee Breaks.wav,# rock,Led Zeppelin
81,Led Zeppelin - Stairway To Heaven.wav,# rock,Led Zeppelin
82,Led Zeppelin - Babe I'm Gonna Leave You.wav,# rock,Led Zeppelin
83,Led Zeppelin - The Song Remains The Same.wav,# rock,Led Zeppelin
84,Led Zeppelin - Living Loving Maid .wav,# rock,Led Zeppelin
85,Led Zeppelin - Nobody's Fault But Mine.wav,# rock,Led Zeppelin
86,Led Zeppelin - The Ocean.wav,# rock,Led Zeppelin
87,Led Zeppelin - Ramble On.wav,# rock,Led Zeppelin
88,Led Zeppelin - Travelling Riverside Blues.wav,# rock,Led Zeppelin
89,Led Zeppelin - I Can't Quit You Baby.wav,# rock,Led Zeppelin
90,Led Zeppelin - Dazed And Confused.wav,# rock,Led Zeppelin
91,Led Zeppelin - Somethin' Else.wav,# rock,Led Zeppelin
92,Led Zeppelin - Black Dog.wav,# rock,Led Zeppelin
93,Led Zeppelin - That's The Way.wav,# rock,Led Zeppelin
94,Led Zeppelin - You Shook Me.wav,# rock,Led Zeppelin
95,Led Zeppelin - The Rover.wav,# rock,Led Zeppelin
96,Led Zeppelin - Achilles Last Stand.wav,# rock,Led Zeppelin
97,Led Zeppelin - Houses Of The Holy.wav,# rock,Led Zeppelin
98,Led Zeppelin - Trampled Under Foot.wav,# rock,Led Zeppelin
99,Led Zeppelin - Tangerine.wav,# rock,Led Zeppelin
100,Led Zeppelin - In The Light.wav,# rock,Led Zeppelin
101,Led Zeppelin - Good Times Bad Times.wav,# rock,Led Zeppelin
102,Led Zeppelin - Misty Mountain Hop.wav,# rock,Led Zeppelin
103,Led Zeppelin - Since I've Been Loving You.wav,# rock,Led Zeppelin
104,Led Zeppelin - Over The Hills And Far Away .wav,# rock,Led Zeppelin
105,Led Zeppelin - D'yer Mak'er.wav,# rock,Led Zeppelin
106,Led Zeppelin - Over The Hills And Far Away.wav,# rock,Led Zeppelin
107,Led Zeppelin - The Rain Song.wav,# rock,Led Zeppelin
108,Led Zeppelin - No Quarter.wav,# rock,Led Zeppelin
109,"Led Zeppelin - Babe, I Gonna Leave You.wav",# rock,Led Zeppelin
110,Led Zeppelin - Dancing Days.wav,# rock,Led Zeppelin
111,Keane - The Starting Line.wav,# pop,Keane
112,Keane - Silenced By The Night .wav,# pop,Keane
113,Keane - Somewhere Only We Know.wav,# pop,Keane
114,Keane - Silenced By The Night.wav,# pop,Keane
115,Keane - The Boys.wav,# pop,Keane
116,Keane - Day Will Come.wav,# pop,Keane
117,Keane - Tear Up This Town .wav,# pop,Keane
118,Keane - Disconnected.wav,# pop,Keane
119,Keane - On The Road.wav,# pop,Keane
120,Keane - Higher Than The Sun.wav,# pop,Keane
121,Keane - Strangeland.wav,# pop,Keane
122,Keane - You Are Young.wav,# pop,Keane
123,Keane - Won't Be Broken.wav,# pop,Keane
124,Keane - Neon River.wav,# pop,Keane
125,The White Stripes - Icky Thump.wav,# rock,The White Stripes
126,The White Stripes - Blue Orchid.wav,# rock,The White Stripes
127,The White Stripes - Hello Operator.wav,# rock,The White Stripes
128,The White Stripes - Fell In Love With A Girl.wav,# rock,The White Stripes
129,The White Stripes - We're Going To Be Friends.wav,# rock,The White Stripes
130,The White Stripes - The Denial Twist.wav,# rock,The White Stripes
131,The White Stripes - The Big Tree Killed My Baby.wav,# rock,The White Stripes
132,The White Stripes - Seven Nation Army.wav,# rock,The White Stripes
133,The White Stripes - I Just Don't Know What To Do With Myself.wav,# rock,The White Stripes
134,The White Stripes - Hotel Yorba.wav,# rock,The White Stripes
135,The White Stripes - The Hardest Button To Button.wav,# rock,The White Stripes
136,The White Stripes - Black Math.wav,# rock,The White Stripes
137,The White Stripes - Dead Leaves & The Dirty Ground.wav,# rock,The White Stripes
138,The White Stripes - Ball And Biscuit.wav,# rock,The White Stripes
139,The White Stripes - I Can Learn.wav,# rock,The White Stripes
140,Don Diablo ft. The White Stripes - Seven Nation Universe .wav,# rock,The White Stripes
141,Muse - Supermassive Black Hole.wav,# rock,Muse
142,Muse - Panic Station.wav,# rock,Muse
143,Muse - Resistance.wav,# rock,Muse
144,Muse - Feeling Good.wav,# rock,Muse
145,Muse - Hyper Music.wav,# rock,Muse
146,Muse - Survival.wav,# rock,Muse
147,Muse - Uprising.wav,# rock,Muse
148,Muse - Apocalypse Please.wav,# rock,Muse
149,Muse - Undisclosed Desires.wav,# rock,Muse
150,Muse - Muscle Museum.wav,# rock,Muse
151,Muse - New Born.wav,# rock,Muse
152,Muse - Madness.wav,# rock,Muse
153,Muse - Time Is Running Out.wav,# rock,Muse
154,Muse - Bliss.wav,# rock,Muse
155,Muse - Knights Of Cydonia.wav,# rock,Muse
156,Muse - Plug In Baby.wav,# rock,Muse
157,Muse - Stockholm Syndrome.wav,# rock,Muse
158,Muse - Butterflies and Hurricanes.wav,# rock,Muse
159,Muse - Starlight.wav,# rock,Muse
160,Muse - Hysteria.wav,# rock,Muse
161,Muse - Thought Contagion.wav,# rock,Muse
162,Muse - Dead Inside.wav,# rock,Muse
163,Muse - Psycho.wav,# rock,Muse
164,Muse - Map Of The Problematique.wav,# rock,Muse
165,Muse - Dig Down.wav,# rock,Muse
166,Muse - Sing For Absolution.wav,# rock,Muse
167,Jimi Hendrix - Bold As Love.wav,# blues,Jimi Hendrix
168,Jimi Hendrix - Purple Haze.wav,# blues,Jimi Hendrix
169,Jimi Hendrix Feat. Jim Morrison - Bleeding Heart.wav,# blues,Jimi Hendrix
170,Jimi Hendrix - Foxey Lady.wav,# blues,Jimi Hendrix
171,Jimi Hendrix - If 6 Was 9.wav,# blues,Jimi Hendrix
172,Jimi Hendrix - Stone Free.wav,# blues,Jimi Hendrix
173,Jimi Hendrix - Country Blues .wav,# blues,Jimi Hendrix
174,Jimi Hendrix - Psycho [Live].wav,# blues,Jimi Hendrix
175,Jimi Hendrix - Drone Blues .wav,# blues,Jimi Hendrix
176,Jimi Hendrix - Night Life [Live].wav,# blues,Jimi Hendrix
177,Jimi Hendrix - Red House.wav,# blues,Jimi Hendrix
178,Jimi Hendrix - Burning Of The Midnight Lamp.wav,# blues,Jimi Hendrix
179,Jimi Hendrix - Once I Had A Woman.wav,# blues,Jimi Hendrix
180,Jimi Hendrix - Easy Blues .wav,# blues,Jimi Hendrix
181,Jimi Hendrix - The Sunshine Of Your Love.wav,# blues,Jimi Hendrix
182,Jimi Hendrix - Little Wing.wav,# blues,Jimi Hendrix
183,Jimi Hendrix - Born Under A Bad Sign.wav,# blues,Jimi Hendrix
184,Jimi Hendrix - She's A Fox.wav,# blues,Jimi Hendrix
185,Jimi Hendrix - Denny Boy Traditional.wav,# blues,Jimi Hendrix
186,Jimi Hendrix - Angel.wav,# blues,Jimi Hendrix
187,Jimi Hendrix - Jelly 292.wav,# blues,Jimi Hendrix
188,Jimi Hendrix - Send My Love To Linda .wav,# blues,Jimi Hendrix
189,Jimi Hendrix - Castles Made Of Sand.wav,# blues,Jimi Hendrix
190,Jimi Hendrix - Catfish Blues.wav,# blues,Jimi Hendrix
191,Jimi Hendrix - The Wind Cries Mary.wav,# blues,Jimi Hendrix
192,Jimi Hendrix - Like A Rolling Stone.wav,# blues,Jimi Hendrix
193,Jimi Hendrix - Two & One Goes.wav,# blues,Jimi Hendrix
194,Jimi Hendrix - Voodoo Chile Blues.wav,# blues,Jimi Hendrix
195,Jimi Hendrix - Hey Joe.wav,# blues,Jimi Hendrix
196,The Prodigy - Nasty.wav,# electronic,The Prodigy
197,The Prodigy feat. Ho99o9 - Fight Fire With Fire.wav,# electronic,The Prodigy
198,The Prodigy - Smack My Bitch Up.wav,# electronic,The Prodigy
199,The Prodigy - Rok-Weiler.wav,# electronic,The Prodigy
200,The Prodigy - Need Some1 .wav,# electronic,The Prodigy
201,The Prodigy - Roadblox.wav,# electronic,The Prodigy
202,The Prodigy - Wild Frontier.wav,# electronic,The Prodigy
203,The Prodigy - Hot Ride.wav,# electronic,The Prodigy
204,The Prodigy - Omen.wav,# electronic,The Prodigy
205,The Prodigy - Need Some1.wav,# electronic,The Prodigy
206,The Prodigy - Firestarter.wav,# electronic,The Prodigy
207,The Prodigy - Out Of Space .wav,# electronic,The Prodigy
208,The Prodigy - The Day Is My Enemy.wav,# electronic,The Prodigy
209,The Prodigy - Voodoo People.wav,# electronic,The Prodigy
210,The Prodigy - Mindfields.wav,# electronic,The Prodigy
211,The Prodigy - Take Me To The Hospital.wav,# electronic,The Prodigy
212,The Prodigy - Rise Of The Eagles.wav,# electronic,The Prodigy
213,The Prodigy feat. Barns Courtney - Give Me A Signal.wav,# electronic,The Prodigy
214,The Prodigy - No Good .wav,# electronic,The Prodigy
215,The Prodigy - We Live Forever.wav,# electronic,The Prodigy
216,The Prodigy - Take Me To The Hospital .wav,# electronic,The Prodigy
217,The Prodigy - Light Up The Sky.wav,# electronic,The Prodigy
218,The Prodigy - Run With The Wolves.wav,# electronic,The Prodigy
219,The Prodigy - Wall Of Death.wav,# electronic,The Prodigy
220,The Prodigy - Boom Boom Tap.wav,# electronic,The Prodigy
221,The Prodigy - Baby's Got A Temper.wav,# electronic,The Prodigy
222,The Prodigy - Nasty .wav,# electronic,The Prodigy
223,The Prodigy - Invaders Must Die.wav,# electronic,The Prodigy
224,The Prodigy - Spitfire.wav,# electronic,The Prodigy
225,The Prodigy - Out Of Space.wav,# electronic,The Prodigy
226,The Prodigy - Rebel Radio.wav,# electronic,The Prodigy
227,"50 Cent feat. Prodigy, Kidd Kidd & Styles P - Chase The Paper.wav",# electronic,The Prodigy
228,The Prodigy - Poison.wav,# electronic,The Prodigy
229,The Prodigy - Timebomb Zone.wav,# electronic,The Prodigy
230,The Prodigy - Breathe.wav,# electronic,The Prodigy
231,The Prodigy - Medicine.wav,# electronic,The Prodigy
232,The Prodigy - Ibiza .wav,# electronic,The Prodigy
233,The Prodigy - We Live Forever .wav,# electronic,The Prodigy
234,Pakito vs. The Prodigy - Living On Video Bitch Up .wav,# electronic,The Prodigy
235,The Prodigy - Charly .wav,# electronic,The Prodigy
236,The Prodigy - Their Law .wav,# electronic,The Prodigy
237,The Prodigy - Diesel Power.wav,# electronic,The Prodigy
238,The Prodigy - Warrior's Dance.wav,# electronic,The Prodigy
239,The Prodigy - Get Your Fight On.wav,# electronic,The Prodigy
240,Redlight feat. Prodigy - Lion Jungle.wav,# electronic,The Prodigy
241,The Prodigy - Champions Of London.wav,# electronic,The Prodigy
242,Би-2 - Хипстер.wav,# rock,Би-2
243,Би-2 - Радио Вьетнам.wav,# rock,Би-2
244,Би-2 Feat. Чичерина - Падает Снег.wav,# rock,Би-2
245,Би-2 feat. Elizaveta - Только Любовь Починит.wav,# rock,Би-2
246,Би-2 feat. Чичерина & Prague Metropolitan Symphonic Orchestra - До Утра.wav,# rock,Би-2
247,Би-2 - Christmas.wav,# rock,Би-2
248,Би-2 feat. John Grant - Иначе.wav,# rock,Би-2
249,Би-2 & Варя Демидова - Бегущий По Лезвию Бритвы.wav,# rock,Би-2
250,Би-2 - Любовь и Ненависть.wav,# rock,Би-2
251,Би-2 - Когда Мы Станем Снегом.wav,# rock,Би-2
252,Би-2 feat. Гильza - Пока. Курю.wav,# rock,Би-2
253,Би-2 feat. John Grant - Виски.wav,# rock,Би-2
254,Би-2 - Философский Камень.wav,# rock,Би-2
255,Би-2 feat. Глеб Самойлов - ХалиГалиКришна.wav,# rock,Би-2
256,Би-2 & Настя Полева feat. Олег Нестеров - Старый Друг.wav,# rock,Би-2
257,Би-2 - Полковнику Никто Не Пишет.wav,# rock,Би-2
258,Би-2 - Реки Любви .wav,# rock,Би-2
259,Би-2 feat. Варя Демидова - Потерянная В Сети.wav,# rock,Би-2
260,Би-2 - Детство.wav,# rock,Би-2
261,Би-2 - Научи Меня Быть Счастливым.wav,# rock,Би-2
262,Би-2 - Лайки .wav,# rock,Би-2
263,Би-2 feat. Светлана Сурганова & Мария Максакова - Слепой.wav,# rock,Би-2
264,Би-2 - Нэпман.wav,# rock,Би-2
265,Би-2 - Забрали В Армию.wav,# rock,Би-2
266,Би-2 - И Корабль Плывет.wav,# rock,Би-2
267,Би-2 - Остров Сломанных Игрушек.wav,# rock,Би-2
268,Би-2 & Prague Metropolitan Symphonic Orchestra - Реки Любви.wav,# rock,Би-2
269,Би-2 - Заноза.wav,# rock,Би-2
270,Би-2 - Компромисс.wav,# rock,Би-2
271,Би-2 - Мой Друг.wav,# rock,Би-2
272,Би-2 & Пикник - Остров .wav,# rock,Би-2
273,Квартет И & DJ Грув feat. Би-2 - О Чём Говорят Мужчины.wav,# rock,Би-2
274,Би-2 - Чёрное Солнце.wav,# rock,Би-2
275,Би-2 - Не Свернуть .wav,# rock,Би-2
276,Би-2 - Блюз 16 Плюс.wav,# rock,Би-2
277,Би-2 feat. Олег Нестеров - Дебют.wav,# rock,Би-2
278,Би-2 feat. Ренарс Кауперс & Найк Борзов - Касаясь Земли .wav,# rock,Би-2
279,Би-2 feat. Elizaveta & Валерий Гаина - Музыка Без Причин.wav,# rock,Би-2
280,Би-2 - Реки Любви.wav,# rock,Би-2
281,Би-2 feat. Oxxxymiron - Пора Возвращаться Домой.wav,# rock,Би-2
282,Би-2 - Северная Лень.wav,# rock,Би-2
283,Би-2 & Юлия Чичерина - Забытый Всеми.wav,# rock,Би-2
284,Би-2 feat. Виктор Сологуб & Mana Island - Хороводная.wav,# rock,Би-2
285,Би-2 & Prague Metropolitan Symphonic Orchestra - Шамбала.wav,# rock,Би-2
286,Би-2 - Моя Любовь.wav,# rock,Би-2
287,Би-2 - Тема Века.wav,# rock,Би-2
288,Би-2 - Пора возвращаться домой.wav,# rock,Би-2
289,Би-2 feat. Ренарс Кауперс & Найк Борзов - Касаясь Земли.wav,# rock,Би-2
290,Би-2 - Алиса.wav,# rock,Би-2
291,Би-2 - Не Умирать Молодым.wav,# rock,Би-2
292,Би-2 feat. Варя Демидова - Книга.wav,# rock,Би-2
293,Би-2 & Prague Metropolitan Symphonic Orchestra - Её Глаза.wav,# rock,Би-2
294,Би-2 - 1000 Миль.wav,# rock,Би-2
295,Би-2 - Огоньки.wav,# rock,Би-2
296,Би-2 - Мать.wav,# rock,Би-2
297,Би-2 - Пофигу.wav,# rock,Би-2
298,Би-2 feat. D.Brown & Elizaveta - Я Ищу.wav,# rock,Би-2
299,Би-2 & Prague Metropolitan Symphonic Orchestra - Вечная Призрачная Встречная.wav,# rock,Би-2
300,Александр Демидов & Би-2 - Золотые Города.wav,# rock,Би-2
301,Би-2 - Лайки.wav,# rock,Би-2
302,Би-2 feat. Варя Демидова - Будет Он Один.wav,# rock,Би-2
303,Би-2 - Шар Земной.wav,# rock,Би-2
304,Би-2 - Унисон.wav,# rock,Би-2
305,Би-2 & Смысловые Галлюцинации - Тёмные Небеса.wav,# rock,Би-2
306,Би-2 - Трава У Дома .wav,# rock,Би-2
307,Би-2 & Тамара Гвердцители - Безвоздушная Тревога.wav,# rock,Би-2
308,Би-2 & Чичерина - Падает Cнег.wav,# rock,Би-2
309,Би-2 feat. Юрий Усачёв - Робот.wav,# rock,Би-2
310,Би-2 - Три Сантиметра Над Землёй.wav,# rock,Би-2
311,Би-2 - Блеф.wav,# rock,Би-2
312,Би-2 - Ля-Ля Тополя .wav,# rock,Би-2
313,Би-2 - Девушки.wav,# rock,Би-2
314,Би-2 - Шамбала .wav,# rock,Би-2
315,Би-2 - Лётчик.wav,# rock,Би-2
316,Би-2 - Солдат 2.wav,# rock,Би-2
317,Jamiroquai - Shake It On.wav,# jazz,Jamiroquai
318,Jamiroquai - Never Gonna Be Another.wav,# jazz,Jamiroquai
319,Jamiroquai - Canned Heat.wav,# jazz,Jamiroquai
320,Jamiroquai - Automaton.wav,# jazz,Jamiroquai
321,Jamiroquai - Little L.wav,# jazz,Jamiroquai
322,Jamiroquai - You Give Me Something.wav,# jazz,Jamiroquai
323,Jamiroquai - Summer Girl.wav,# jazz,Jamiroquai
324,Jamiroquai - Corner Of The Earth.wav,# jazz,Jamiroquai
325,Jamiroquai - Talulah.wav,# jazz,Jamiroquai
326,Jamiroquai - Space Cowboy .wav,# jazz,Jamiroquai
327,Queen - Baby I Don't Care.wav,# rock,Queen
328,Queen - The Prophet's Song.wav,# rock,Queen
329,Queen - Tutti Frutti.wav,# rock,Queen
330,Queen - Another One Bites The Dust .wav,# rock,Queen
331,Queen - Seven Seas Of Rhye.wav,# rock,Queen
332,Queen - Good Company.wav,# rock,Queen
333,Queen - These Are The Days Of Our Lives.wav,# rock,Queen
334,Queen - Show Must Go On .wav,# rock,Queen
335,Queen - Mother Love.wav,# rock,Queen
336,Queen - White Queen.wav,# rock,Queen
337,Queen - A Kind Of Magic .wav,# rock,Queen
338,Queen - Life Is Real .wav,# rock,Queen
339,Queen - Mustapha.wav,# rock,Queen
340,Queen - The Show Must Go On.wav,# rock,Queen
341,Queen - Sheer Heart Attack.wav,# rock,Queen
342,Queen - A Winter's Tale .wav,# rock,Queen
343,Queen - My Fairy King.wav,# rock,Queen
344,Queen - You're My Best Friend.wav,# rock,Queen
345,Queen - A Winter's Tale.wav,# rock,Queen
346,Queen - I Want It All.wav,# rock,Queen
347,Queen - You Don't Fool Me.wav,# rock,Queen
348,Queen - All Dead All Dead.wav,# rock,Queen
349,Queen - Hallo Mary Lou.wav,# rock,Queen
350,Queen - Your Kind Of Lover.wav,# rock,Queen
351,Queen - God Save The Queen.wav,# rock,Queen
352,Queen - Headlong.wav,# rock,Queen
353,Queen - Killer Queen.wav,# rock,Queen
354,Queen - Heaven For Everyone.wav,# rock,Queen
355,Queen - Friends Will Be Friends.wav,# rock,Queen
356,Queen - Love Kills.wav,# rock,Queen
357,Queen - Fat Bottomed Girls.wav,# rock,Queen
358,Queen - Bohemian Rhapsody .wav,# rock,Queen
359,David Bowie ft. Queen - Under Pressure.wav,# rock,Queen
360,Queen - Save Me.wav,# rock,Queen
361,Queen - No-One But You.wav,# rock,Queen
362,Queen - Action This Day.wav,# rock,Queen
363,George Michael & Queen - Calling You.wav,# rock,Queen
364,Queen - Jesus.wav,# rock,Queen
365,Queen - Spread Your Wings.wav,# rock,Queen
366,Queen - Thank God It's Christmas.wav,# rock,Queen
367,Queen - I'm In Love With My Car.wav,# rock,Queen
368,Queen - Fight From The Inside.wav,# rock,Queen
369,Queen - We Will Rock You.wav,# rock,Queen
370,Queen - '39.wav,# rock,Queen
371,Queen - Love Of My Life.wav,# rock,Queen
372,Queen - Death On Two Legs.wav,# rock,Queen
373,Queen - Seaside Rendezvous.wav,# rock,Queen
374,Queen - Nevermore.wav,# rock,Queen
375,Queen - Ride The Willd Wind.wav,# rock,Queen
376,Queen - Who Wants To Live Forever.wav,# rock,Queen
377,Queen - Another One Bites The Dust.wav,# rock,Queen
378,Queen - Lazing On A Sunday Afternoon.wav,# rock,Queen
379,Queen - Uder Pressure.wav,# rock,Queen
380,Queen - Don't Stop Me Now.wav,# rock,Queen
381,Queen - Somebody To Love.wav,# rock,Queen
382,Queen - We Are The Champions.wav,# rock,Queen
383,Queen - It's A Hard Life.wav,# rock,Queen
384,Queen - One Year Of Life.wav,# rock,Queen
385,Queen - Sweet Lady.wav,# rock,Queen
386,Queen - Let's Turn It On.wav,# rock,Queen
387,Queen - Radio Gaga.wav,# rock,Queen
388,Queen - Living On My Own.wav,# rock,Queen
389,Queen - Flash.wav,# rock,Queen
390,Queen - Delilah.wav,# rock,Queen
391,Queen - Radio Ga Ga.wav,# rock,Queen
392,Queen - A Kind Of Magic.wav,# rock,Queen
393,Queen - Bohemian Rhapsody.wav,# rock,Queen
394,Radiohead - Melatonin .wav,# alternative,Radiohead
395,Radiohead - The Numbers.wav,# alternative,Radiohead
396,Radiohead - A Reminder .wav,# alternative,Radiohead
397,Radiohead - Spectre.wav,# alternative,Radiohead
398,Radiohead - Ful Stop.wav,# alternative,Radiohead
399,Radiohead - Decks Dark.wav,# alternative,Radiohead
400,Radiohead - Glass Eyes.wav,# alternative,Radiohead
401,Radiohead - Burn The Witch.wav,# alternative,Radiohead
402,Radiohead - Meeting In The Aisle .wav,# alternative,Radiohead
403,Radiohead - Palo Alto .wav,# alternative,Radiohead
404,Radiohead - How Do You_.wav,# alternative,Radiohead
405,Radiohead - Backdrifts. .wav,# alternative,Radiohead
406,Radiohead - Present Tense.wav,# alternative,Radiohead
407,Radiohead - The Tourist.wav,# alternative,Radiohead
408,Radiohead - Lull .wav,# alternative,Radiohead
409,"Radiohead - Polyethylene, Pt. 1 & 2 .wav",# alternative,Radiohead
410,Radiohead - Reckoner .wav,# alternative,Radiohead
411,Radiohead - Creep.wav,# alternative,Radiohead
412,Radiohead - Pearly .wav,# alternative,Radiohead
413,Radiohead - You.wav,# alternative,Radiohead
414,Radiohead - No Surprises.wav,# alternative,Radiohead
415,Radiohead - Lift.wav,# alternative,Radiohead
416,Radiohead - Man Of War.wav,# alternative,Radiohead
417,Radiohead - Identikit.wav,# alternative,Radiohead
418,Radiohead - Tinker Tailor Soldier Rich Man Poor Man Beggar Man Thief.wav,# alternative,Radiohead
419,Radiohead - True Love Waits.wav,# alternative,Radiohead
420,Radiohead - How I Made My Millions .wav,# alternative,Radiohead
421,Radiohead - Ill Wind.wav,# alternative,Radiohead
422,Radiohead - Desert Island Disk.wav,# alternative,Radiohead
423,Radiohead - I Promise.wav,# alternative,Radiohead
424,Radiohead - Daydreaming.wav,# alternative,Radiohead
425,James Brown - Top Of The Stack.wav,# jazz,James Brown
426,James Brown - Mona Lisa.wav,# jazz,James Brown
427,James Brown - The Payback.wav,# jazz,James Brown
428,James Brown - Living In America.wav,# jazz,James Brown
429,James Brown - Papa's Got A Brand New Bag.wav,# jazz,James Brown
430,James Brown - There Was A Time.wav,# jazz,James Brown
431,James Brown - Mother Popcorn .wav,# jazz,James Brown
432,James Brown - Soul With Different Notes.wav,# jazz,James Brown
433,James Brown - Doin' The Limbo.wav,# jazz,James Brown
434,James Brown - Say It Loud .wav,# jazz,James Brown
435,"James Brown - Santa Claus, Santa Claus.wav",# jazz,James Brown
436,James Brown - Let's Make Christmas Mean Something This Year.wav,# jazz,James Brown
437,James Brown - Vonshella.wav,# jazz,James Brown
438,James Brown - Soul Power.wav,# jazz,James Brown
439,James Brown - Get Loose.wav,# jazz,James Brown
440,James Brown - Till Then.wav,# jazz,James Brown
441,James Brown - Shhhhhhh .wav,# jazz,James Brown
442,James Brown - Santa Claus Goes Straight To The Ghetto.wav,# jazz,James Brown
443,James Brown - Get Up .wav,# jazz,James Brown
444,James Brown & the Famous Flame - Cold Sweat.wav,# jazz,James Brown
445,James Brown - Let Them Talk.wav,# jazz,James Brown
446,James Brown - Sumpin' Else.wav,# jazz,James Brown
447,James Brown - It's A Man's Man's Man's World.wav,# jazz,James Brown
448,James Brown & The Famous Flames - Cold Sweat .wav,# jazz,James Brown
449,James Brown - Good Good Lovin'.wav,# jazz,James Brown
450,James Brown - If I Ruled The World.wav,# jazz,James Brown
451,James Brown - I Got The Feelin'.wav,# jazz,James Brown
452,James Brown - Signs Of Christmas.wav,# jazz,James Brown
453,James Brown - Please Please Please.wav,# jazz,James Brown
454,James Brown - Like A Baby.wav,# jazz,James Brown
455,James Brown - Again.wav,# jazz,James Brown
456,James Brown - You Know It.wav,# jazz,James Brown
457,"James Brown - Mashed Potatoes, U.S.A..wav",# jazz,James Brown
458,James Brown - I'll Lose My Mind.wav,# jazz,James Brown
459,James Brown - Fat Soul.wav,# jazz,James Brown
460,James Brown - Bewildered.wav,# jazz,James Brown
461,James Brown - Shades Of Brown.wav,# jazz,James Brown
462,James Brown - The Boss.wav,# jazz,James Brown
463,James Brown - I'll Go Crazy.wav,# jazz,James Brown
464,James Brown - That's My Desire.wav,# jazz,James Brown
465,James Brown - September Song.wav,# jazz,James Brown
466,James Brown - New Breed.wav,# jazz,James Brown
467,James Brown - Here I Go.wav,# jazz,James Brown
468,James Brown - Hot Mix.wav,# jazz,James Brown
469,James Brown - I Got You .wav,# jazz,James Brown
470,James Brown - Get Up Offa That Thing.wav,# jazz,James Brown
471,James Brown - Buddy-E.wav,# jazz,James Brown
472,James Brown - So Long.wav,# jazz,James Brown
473,James Brown - Waiting In Vain.wav,# jazz,James Brown
474,James Brown - Any Day Now.wav,# jazz,James Brown
475,James Brown - Get Up I Feel Like Being A Sex Machine.wav,# jazz,James Brown
476,James Brown - Strange Things Happen.wav,# jazz,James Brown
477,U2 - The Blackout.wav,# rock,U2
478,U2 - Even Better Than The Real Thing.wav,# rock,U2
479,U2 - Zooropa.wav,# rock,U2
480,U2 - Song for Someone.wav,# rock,U2
481,U2 - Red Flag Day.wav,# rock,U2
482,U2 - Where The Streets Have No Name.wav,# rock,U2
483,U2 - Bullet The Blue Sky.wav,# rock,U2
484,U2 - Get Out Of Your Own Way .wav,# rock,U2
485,U2 - Summer Of Love .wav,# rock,U2
486,Paul Oakenfold ft. U2 - Beautiful Day.wav,# rock,U2
487,U2 - Pride.wav,# rock,U2
488,U2 - Acrobat.wav,# rock,U2
489,U2 - Ordinary Love.wav,# rock,U2
490,The Black Eyed Peas & U2 & Mick Jagger - Gimme Shelter.wav,# rock,U2
491,U2 - Lemon.wav,# rock,U2
492,U2 - Volcano.wav,# rock,U2
493,U2 - One.wav,# rock,U2
494,U2 - Iris .wav,# rock,U2
495,U2 - Pride .wav,# rock,U2
496,U2 - Beautiful Day.wav,# rock,U2
497,U2 - With Or Without You.wav,# rock,U2
498,U2 - Stuck In A Moment You Can't Get Out Of.wav,# rock,U2
499,U2 - Summer Of Love.wav,# rock,U2
500,U2 - Every Breaking Wave.wav,# rock,U2
501,U2 - I Will Follow.wav,# rock,U2
502,U2 - Book Of Your Heart.wav,# rock,U2
503,U2 - City of Blinding Lights.wav,# rock,U2
504,U2 - All I Want Is You.wav,# rock,U2
505,U2 - Raised By Wolves.wav,# rock,U2
506,U2 - Get Out Of Your Own Way.wav,# rock,U2
507,U2 - You.wav,# rock,U2
508,U2 - Mysterious Ways.wav,# rock,U2
509,U2 - Invisible.wav,# rock,U2
510,U2 - The Little Things That Give You Away.wav,# rock,U2
511,U2 - You’re The Best Thing About Me.wav,# rock,U2
512,U2 - Stay .wav,# rock,U2
513,U2 - I Still Haven't Found What I'm Looking For.wav,# rock,U2
514,U2 - New Year's Day.wav,# rock,U2
515,U2 - Numb.wav,# rock,U2
516,U2 - Winter.wav,# rock,U2
517,U2 - Sunday Bloody Sunday.wav,# rock,U2
518,U2 - Desert Of Our Love.wav,# rock,U2
519,U2 Feat. Mary J. Blige - One Love.wav,# rock,U2
520,U2 - With Or Without You .wav,# rock,U2
521,The Black Eyed Peas & U2 - Where Is The Love - One.wav,# rock,U2
522,U2 - Walk On.wav,# rock,U2
523,Eminem - So Much Better.wav,# rap,Eminem
524,Eminem - Baby.wav,# rap,Eminem
525,Eminem - Wicked Ways.wav,# rap,Eminem
526,Eminem feat. Skylar Grey - Asshole.wav,# rap,Eminem
527,Pink Feat. Eminem - Here Comes The Weekend.wav,# rap,Eminem
528,Eminem Feat. Obie Trice - Emulate.wav,# rap,Eminem
529,Eminem feat. Sia - Guts Over Fear.wav,# rap,Eminem
530,Havoc & Eminem - Missing Ya Call.wav,# rap,Eminem
531,Eminem - River.wav,# rap,Eminem
532,Eminem - Jingle Bells.wav,# rap,Eminem
533,Eminem - Seduction.wav,# rap,Eminem
534,Eminem - Rap God.wav,# rap,Eminem
535,Young Jeezy Feat. Freddie Gibbs & Eminem - Talk To Me.wav,# rap,Eminem
536,Busta Rhymes feat. Eminem - Calm Down.wav,# rap,Eminem
537,Eminem - Berzerk.wav,# rap,Eminem
538,Eminem - Heat.wav,# rap,Eminem
539,Eminem - Guilty Consience.wav,# rap,Eminem
540,Eminem & Dido - Stan.wav,# rap,Eminem
541,Eminem - Ass Like That.wav,# rap,Eminem
542,Eminem - Venom.wav,# rap,Eminem
543,Eminem - Greatest.wav,# rap,Eminem
544,Eminem - In Your Head.wav,# rap,Eminem
545,Eminem - Killshot.wav,# rap,Eminem
546,D12 Ft. Eminem - Everyone Has Been Shot.wav,# rap,Eminem
547,Obie Trice Feat. Eminem - Richard.wav,# rap,Eminem
548,"Drake feat. Kanye West, Lil Wayne & Eminem - Monster.wav",# rap,Eminem
549,Eminem - Fall.wav,# rap,Eminem
550,Eminem feat. PHRESHER - Chloraseptic.wav,# rap,Eminem
551,Eminem - Taking My Ball.wav,# rap,Eminem
552,Eminem - Just Don't Give A Fuck.wav,# rap,Eminem
553,Eminem feat. Alicia Keys - Like Home.wav,# rap,Eminem
554,Eminem - Bad Guy.wav,# rap,Eminem
555,Eminem feat. Pink - Need Me.wav,# rap,Eminem
556,Skyla Heavens Feat. Eminem - Hot Metal.wav,# rap,Eminem
557,Eminem - Kim.wav,# rap,Eminem
558,Eminem - Role Model.wav,# rap,Eminem
559,Slaughterhouse Feat. Eminem - Throw Tha.wav,# rap,Eminem
560,Eminem - Framed.wav,# rap,Eminem
561,Eminem feat. Kehlani - Nowhere Fast.wav,# rap,Eminem
562,Eminem - Untouchable.wav,# rap,Eminem
563,Eminem feat. Kendrick Lamar - Love Game.wav,# rap,Eminem
564,Eminem feat. Gwen Stefani - Kings Never Die .wav,# rap,Eminem
565,Eminem - Mockingbird.wav,# rap,Eminem
566,Eminem - Stronger Than I Was.wav,# rap,Eminem
567,Eminem - Berserk .wav,# rap,Eminem
568,Eminem - Stan .wav,# rap,Eminem
569,50 Cent feat. Eminem - Peep Show.wav,# rap,Eminem
570,Eminem Feat. D12 - Going Crazy.wav,# rap,Eminem
571,Eminem - Rhyme Or Reason.wav,# rap,Eminem
572,Eminem - The Ringer.wav,# rap,Eminem
573,Eminem - Evil Twin.wav,# rap,Eminem
574,Eminem - Oh No.wav,# rap,Eminem
575,Eminem - Survival.wav,# rap,Eminem
576,Eminem - Believe.wav,# rap,Eminem
577,Trick Trick feat. Eminem & Royce Da 5'9 - Twerk Dat Pop That.wav,# rap,Eminem
578,Rihanna Feat. Eminem - Love The Way You Lie.wav,# rap,Eminem
579,Eminem - Arose.wav,# rap,Eminem
580,Eminem - Offended.wav,# rap,Eminem
581,Eminem - Kamikaze.wav,# rap,Eminem
582,Eminem - Legacy.wav,# rap,Eminem
583,Eminem - Remind Me.wav,# rap,Eminem
584,Eminem Feat. Just Blaze - Fly Away.wav,# rap,Eminem
585,Eminem feat. Rihanna - The Monster.wav,# rap,Eminem
586,Eminem feat. Buckshot - Don’t Front.wav,# rap,Eminem
587,Eminem feat. X Ambassadors - Bad Husband.wav,# rap,Eminem
588,Eminem - Brainless.wav,# rap,Eminem
589,Eminem - Lose Yourself .wav,# rap,Eminem
590,Eminem - W.T.P..wav,# rap,Eminem
591,Eminem - The Apple.wav,# rap,Eminem
592,Slaughterhouse Feat. Eminem & Skylar Grey - Our House.wav,# rap,Eminem
593,Eminem - Groundhog Day.wav,# rap,Eminem
594,Tc Feat. Rihanna & Eminem - Numb .wav,# rap,Eminem
595,Dr. Dre feat. Eminem & Skylar Grey - I Need A Doctor .wav,# rap,Eminem
596,Eminem feat. Nate Ruess - Headlights.wav,# rap,Eminem
597,Eminem feat. Rihanna - Love The Way You Lie .wav,# rap,Eminem
598,Eminem ft. Tujamo - Without Bounce Me .wav,# rap,Eminem
599,Boogie feat. Eminem - Rainy Days.wav,# rap,Eminem
600,Eminem - So Far.wav,# rap,Eminem
601,Eminem feat. 2 Chainz & Phresher - Chloraseptic .wav,# rap,Eminem
602,Eminem - The Warning.wav,# rap,Eminem
603,Yelawolf feat. Eminem - Best Friend.wav,# rap,Eminem
604,Akon Feat. Eminem - Smack That.wav,# rap,Eminem
605,Eminem - All She Wrote .wav,# rap,Eminem
606,Slaughterhouse Feat. Eminem - Juggernauts.wav,# rap,Eminem
607,Eminem feat. Joyner Lucas - Lucky You.wav,# rap,Eminem
608,Eminem - The Real Slim Shady.wav,# rap,Eminem
609,Eminem feat. Skylar Grey - Tragic Endings.wav,# rap,Eminem
610,Юрий Шатунов Feat. Cj Koka & Eminem - Детство.wav,# rap,Eminem
611,Eminem feat. Jamie N Commons - Desperation.wav,# rap,Eminem
612,Skylar Grey Feat. Eminem - C'mon Let Me Ride.wav,# rap,Eminem
613,Eminem - Space Bound.wav,# rap,Eminem
614,Nicki Minaj feat. Eminem & Labrinth - Majesty.wav,# rap,Eminem
615,Eminem - Phenomenal .wav,# rap,Eminem
616,Eminem - Still Don't Give A Fuck.wav,# rap,Eminem
617,Slaughterhouse Feat. Eminem - Asylum.wav,# rap,Eminem
618,Eminem - Lose Yourself.wav,# rap,Eminem
619,Eminem - Stepping Stone.wav,# rap,Eminem
620,50 Cent Feat. Eminem & Adam Levine - My Life.wav,# rap,Eminem
621,Eminem - My Name Is.wav,# rap,Eminem
622,Skylar Grey & Eminem - Kill For You.wav,# rap,Eminem
623,Eminem - Castle.wav,# rap,Eminem
624,Nirvana - Goodbye Baby Bunting .wav,# rock,Nirvana
625,Nirvana - Ombinus .wav,# rock,Nirvana
626,Nirvana - Lithium .wav,# rock,Nirvana
627,Nirvana - Goodbye Baby Bunting.wav,# rock,Nirvana
628,Nirvana - All Apologies.wav,# rock,Nirvana
629,Nirvana - Pentecost Hotel.wav,# rock,Nirvana
630,Nirvana - Heart Shaped Box.wav,# rock,Nirvana
631,Nirvana - Wings Of Love.wav,# rock,Nirvana
632,Nirvana - Take This Hand.wav,# rock,Nirvana
633,Nirvana - I Never Had A Love Like This Before.wav,# rock,Nirvana
634,Nirvana - C Side To Ocho Rios.wav,# rock,Nirvana
635,Nirvana - Come As You Are.wav,# rock,Nirvana
636,Nirvana - Dive.wav,# rock,Nirvana
637,Nirvana - Silver.wav,# rock,Nirvana
638,Nirvana - Dumb.wav,# rock,Nirvana
639,Nirvana - You Are Just The One.wav,# rock,Nirvana
640,Nirvana - Requiem To John Coltrane.wav,# rock,Nirvana
641,Nirvana - I Never Had A Love Like This Before .wav,# rock,Nirvana
642,Nirvana - In The Courtyard Of The Stars.wav,# rock,Nirvana
643,Nirvana - In Bloom.wav,# rock,Nirvana
644,Nirvana - Pennyroyal Tea.wav,# rock,Nirvana
645,Nirvana - Flashbulb.wav,# rock,Nirvana
646,Nirvana - Smells Like Teen Spirit.wav,# rock,Nirvana
647,Nirvana - Polly.wav,# rock,Nirvana
648,Nirvana - Trapeze .wav,# rock,Nirvana
649,Nirvana - The Man Who Sold The World.wav,# rock,Nirvana
650,Nirvana - Lonely Boy .wav,# rock,Nirvana
651,Nirvana - Turnaround.wav,# rock,Nirvana
652,Nirvana - Oscar .wav,# rock,Nirvana
653,Nirvana - 1999.wav,# rock,Nirvana
654,Nirvana - You Know You're Right.wav,# rock,Nirvana
655,Nirvana - City Of The South .wav,# rock,Nirvana
656,Nirvana - Lithium.wav,# rock,Nirvana
657,Nirvana - About A Girl.wav,# rock,Nirvana
658,Nirvana - Been A Son.wav,# rock,Nirvana
659,Nirvana - Life Ain't Easy.wav,# rock,Nirvana
660,Nirvana - Rape Me.wav,# rock,Nirvana
661,Nirvana - We Can Help You.wav,# rock,Nirvana
662,Nirvana - I Believe In Magic.wav,# rock,Nirvana
663,Nirvana - Rape Me .wav,# rock,Nirvana
664,Nirvana - Smells Like Teen Spirit .wav,# rock,Nirvana
665,Nirvana - Feelin' Shattered.wav,# rock,Nirvana
666,Nirvana - Tiny Godess .wav,# rock,Nirvana
667,Nirvana - Lonely Boy.wav,# rock,Nirvana
668,Nirvana - Darling Darlane .wav,# rock,Nirvana
669,Nirvana - Satellite Jockey.wav,# rock,Nirvana
670,Nirvana - The Men Who Sold The World.wav,# rock,Nirvana
671,Skrillex & DJ Sliink feat. Wale - Saint Laurent.wav,# dubstep,Skrillex
672,Whethan & Skrillex feat. Kiiara - Friendship.wav,# dubstep,Skrillex
673,Zhu & Skrillex & THEY. - Working For It.wav,# dubstep,Skrillex
674,Skrillex & Jauz - Squad Out!.wav,# dubstep,Skrillex
675,Skrillex - Cat Rats.wav,# dubstep,Skrillex
676,ASAP Rocky feat. Skrillex - Wild For The Night.wav,# dubstep,Skrillex
677,Skrillex feat. Sirah - Bangarang.wav,# dubstep,Skrillex
678,Skrillex feat. Tennyson & White Sea - Stranger .wav,# dubstep,Skrillex
679,Skrillex - Voltage .wav,# dubstep,Skrillex
680,Skrillex & Damian Marley - Make It Bun Dem.wav,# dubstep,Skrillex
681,Skrillex - Fire Away.wav,# dubstep,Skrillex
682,Kaskade & Skrillex - Lick It .wav,# dubstep,Skrillex
683,Mr. Oizo & Skrillex - End Of The World.wav,# dubstep,Skrillex
684,Dillon Francis & Skrillex feat. Maluca - Bun Up The Dance.wav,# dubstep,Skrillex
685,Skrillex feat. KillaGraham & Sam Dew - Stranger.wav,# dubstep,Skrillex
686,Hikaru Utada & Skrillex - Face My Fears.wav,# dubstep,Skrillex
687,Skrillex & Poo Bear - Would You Ever.wav,# dubstep,Skrillex
688,Jack U .wav,# dubstep,Skrillex
689,Skrillex - Bangarang.wav,# dubstep,Skrillex
690,Skrillex feat. Chance The Rapper - Coast Is Clear.wav,# dubstep,Skrillex
691,Ty Dolla Sign feat. Damian Marley & Skrillex - So Am I.wav,# dubstep,Skrillex
692,Skrillex - Leaving.wav,# dubstep,Skrillex
693,Skrillex feat. Ellie Goulding - Summit .wav,# dubstep,Skrillex
694,Skrillex - Reptile's Theme .wav,# dubstep,Skrillex
695,Nstasia feat. Skrillex - Parachute.wav,# dubstep,Skrillex
696,Skrillex feat. Ragga Twins - All Is Fair In Love And Brostep.wav,# dubstep,Skrillex
697,Skrillex - Ease My Mind .wav,# dubstep,Skrillex
698,Skrillex feat. Kill The Noise & Fatman Scoop - Recess .wav,# dubstep,Skrillex
699,Diplo ft. Justin Bieber ft. Skrillex - Where Are U Now .wav,# dubstep,Skrillex
700,Skrillex feat. Ragga Twins - Ragga Bomb.wav,# dubstep,Skrillex
701,Sirah & Skrillex - Deadbeat.wav,# dubstep,Skrillex
702,From First To Last feat. Skrillex - Make War.wav,# dubstep,Skrillex
703,Skrillex - Disco Rangers.wav,# dubstep,Skrillex
704,Skrillex feat. Ragga Twins - Ragga Bomb .wav,# dubstep,Skrillex
705,Skrillex & Poo Bear - Would You Ever .wav,# dubstep,Skrillex
706,Skrillex - Ease My Mind.wav,# dubstep,Skrillex
707,SOFI feat. Skrillex - Bring Out The Devil .wav,# dubstep,Skrillex
708,Skrillex - Scary Bolly Dub.wav,# dubstep,Skrillex
709,Rick Ross ft. Skrillex - Purple Lamborghini .wav,# dubstep,Skrillex
710,Skrillex & Trollphace - Bad Royale.wav,# dubstep,Skrillex
711,Diplo ft. Justin Bieber ft. Skrillex - Where Are U Now.wav,# dubstep,Skrillex
712,Korn feat. Skrillex - Get Up.wav,# dubstep,Skrillex
713,Skrillex & Team EZY feat. NJOMZA - Pretty Bye Bye.wav,# dubstep,Skrillex
714,Skrillex & Vindata feat. Nstasia - Favor.wav,# dubstep,Skrillex
715,Zhu & Skrillex & THEY. - Working For It .wav,# dubstep,Skrillex
716,Skrillex - Kill Everybody .wav,# dubstep,Skrillex
717,Skrillex - The Reason.wav,# dubstep,Skrillex
718,Elliphant & Skrillex - Only Getting Younger .wav,# dubstep,Skrillex
719,Skrillex feat. Alvin Risk - I'mma Try It Out.wav,# dubstep,Skrillex
720,Elliphant feat. Skrillex - Only Getting Younger.wav,# dubstep,Skrillex
721,Foreign Beggars feat. Skrillex - Still Getting It.wav,# dubstep,Skrillex
722,Skrillex feat. Alvin Risk - Try It Out.wav,# dubstep,Skrillex
723,Elliphant feat. Skrillex - Spoon Me.wav,# dubstep,Skrillex
724,Skrillex feat. Kill The Noise & Fatman Scoop - Recess.wav,# dubstep,Skrillex
725,Skrillex & Alvin Risk - Try It Out .wav,# dubstep,Skrillex
726,Skrillex feat. Krewella - Breathe .wav,# dubstep,Skrillex
727,Skrillex & Rick Ross - Purple Lamborghini .wav,# dubstep,Skrillex
